<?xml version="1.0" encoding="UTF-8" standalone="no"?>
<!-- Created with Inkscape (http://www.inkscape.org/) -->

<svg
   xmlns:osb="http://www.openswatchbook.org/uri/2009/osb"
   xmlns:dc="http://purl.org/dc/elements/1.1/"
   xmlns:cc="http://creativecommons.org/ns#"
   xmlns:rdf="http://www.w3.org/1999/02/22-rdf-syntax-ns#"
   xmlns:svg="http://www.w3.org/2000/svg"
   xmlns="http://www.w3.org/2000/svg"
   xmlns:xlink="http://www.w3.org/1999/xlink"
   xmlns:sodipodi="http://sodipodi.sourceforge.net/DTD/sodipodi-0.dtd"
   xmlns:inkscape="http://www.inkscape.org/namespaces/inkscape"
   width="372.04724"
   height="524.40942"
   id="ship"
   version="1.1"
   inkscape:version="0.48.4 r9939"
   sodipodi:docname="12_foot_dinghy.svg">
  <defs
     id="defs3559">
    <inkscape:perspective
       sodipodi:type="inkscape:persp3d"
       inkscape:vp_x="0 : 252.19051 : 1"
       inkscape:vp_y="0 : 1000 : 0"
       inkscape:vp_z="2388.6023 : 252.19051 : 1"
       inkscape:persp3d-origin="1194.3011 : 168.127 : 1"
       id="perspective4057" />
    <linearGradient
       inkscape:collect="always"
       id="linearGradient4238">
      <stop
         style="stop-color:#999999;stop-opacity:1"
         offset="0"
         id="stop4240" />
      <stop
         style="stop-color:#ffffff;stop-opacity:1"
         offset="1"
         id="stop4242" />
    </linearGradient>
    <linearGradient
       id="linearGradient5222">
      <stop
         id="stop5224"
         offset="0"
         style="stop-color:#b3b3b3;stop-opacity:1" />
      <stop
         id="stop5226"
         offset="1"
         style="stop-color:#ffffff;stop-opacity:1" />
    </linearGradient>
    <linearGradient
       id="linearGradient5216"
       inkscape:collect="always">
      <stop
         id="stop5218"
         offset="0"
         style="stop-color:#b3b3b3;stop-opacity:1" />
      <stop
         id="stop5220"
         offset="1"
         style="stop-color:#ffffff;stop-opacity:1" />
    </linearGradient>
    <linearGradient
       id="linearGradient5210"
       inkscape:collect="always">
      <stop
         id="stop5212"
         offset="0"
         style="stop-color:#b3b3b3;stop-opacity:1" />
      <stop
         id="stop5214"
         offset="1"
         style="stop-color:#ffffff;stop-opacity:1" />
    </linearGradient>
    <linearGradient
       id="linearGradient5204">
      <stop
         id="stop5206"
         offset="0"
         style="stop-color:#b3b3b3;stop-opacity:1" />
      <stop
         id="stop5208"
         offset="1"
         style="stop-color:#ffffff;stop-opacity:1" />
    </linearGradient>
    <linearGradient
       id="linearGradient4578">
      <stop
         style="stop-color:#999999;stop-opacity:1"
         offset="0"
         id="stop4580" />
      <stop
         style="stop-color:#ffffff;stop-opacity:1"
         offset="1"
         id="stop4582" />
    </linearGradient>
    <linearGradient
       id="linearGradient4192">
      <stop
         style="stop-color:#999999;stop-opacity:1"
         offset="0"
         id="stop4194" />
      <stop
         style="stop-color:#ffffff;stop-opacity:1"
         offset="1"
         id="stop4196" />
    </linearGradient>
    <linearGradient
       id="linearGradient4186">
      <stop
         id="stop4188"
         offset="0"
         style="stop-color:#999999;stop-opacity:1" />
      <stop
         id="stop4190"
         offset="1"
         style="stop-color:#ffffff;stop-opacity:1" />
    </linearGradient>
    <linearGradient
       id="linearGradient4180">
      <stop
         style="stop-color:#ffffff;stop-opacity:1;"
         offset="0"
         id="stop4182" />
      <stop
         style="stop-color:#999999;stop-opacity:1"
         offset="1"
         id="stop4184" />
    </linearGradient>
    <linearGradient
       id="linearGradient4174">
      <stop
         style="stop-color:#ffffff;stop-opacity:1;"
         offset="0"
         id="stop4176" />
      <stop
         style="stop-color:#999999;stop-opacity:1"
         offset="1"
         id="stop4178" />
    </linearGradient>
    <linearGradient
       inkscape:collect="always"
       id="linearGradient4148">
      <stop
         style="stop-color:#e6e6e6;stop-opacity:1;"
         offset="0"
         id="stop4150" />
      <stop
         style="stop-color:#e6e6e6;stop-opacity:0;"
         offset="1"
         id="stop4152" />
    </linearGradient>
    <linearGradient
       inkscape:collect="always"
       id="linearGradient4140">
      <stop
         style="stop-color:#b3b3b3;stop-opacity:1"
         offset="0"
         id="stop4142" />
      <stop
         style="stop-color:#999999;stop-opacity:0;"
         offset="1"
         id="stop4144" />
    </linearGradient>
    <linearGradient
       inkscape:collect="always"
       id="linearGradient4958">
      <stop
         style="stop-color:#cccccc;stop-opacity:1"
         offset="0"
         id="stop4960" />
      <stop
         style="stop-color:#cccccc;stop-opacity:0;"
         offset="1"
         id="stop4962" />
    </linearGradient>
    <linearGradient
       id="linearGradient4942">
      <stop
         style="stop-color:#b3b3b3;stop-opacity:0"
         offset="0"
         id="stop4944" />
      <stop
         style="stop-color:#000000;stop-opacity:0;"
         offset="1"
         id="stop4946" />
    </linearGradient>
    <linearGradient
       inkscape:collect="always"
       id="linearGradient4503">
      <stop
         style="stop-color:#999999;stop-opacity:1;"
         offset="0"
         id="stop4505" />
      <stop
         style="stop-color:#999999;stop-opacity:0;"
         offset="1"
         id="stop4507" />
    </linearGradient>
    <linearGradient
       inkscape:collect="always"
       id="linearGradient4301">
      <stop
         style="stop-color:#e6e6e6;stop-opacity:1;"
         offset="0"
         id="stop4303" />
      <stop
         style="stop-color:#e6e6e6;stop-opacity:0;"
         offset="1"
         id="stop4305" />
    </linearGradient>
    <linearGradient
       id="linearGradient8491">
      <stop
         style="stop-color:#666666;stop-opacity:1;"
         offset="0"
         id="stop8493" />
      <stop
         style="stop-color:#666666;stop-opacity:0;"
         offset="1"
         id="stop8495" />
    </linearGradient>
    <linearGradient
       id="linearGradient8475"
       osb:paint="gradient">
      <stop
         style="stop-color:#ffffff;stop-opacity:1;"
         offset="0"
         id="stop8477" />
      <stop
         style="stop-color:#ffffff;stop-opacity:0;"
         offset="1"
         id="stop8479" />
    </linearGradient>
    <linearGradient
       id="linearGradient7483">
      <stop
         id="stop7485"
         offset="0"
         style="stop-color:#ffffff;stop-opacity:1;" />
      <stop
         id="stop7487"
         offset="1"
         style="stop-color:#969696;stop-opacity:1;" />
    </linearGradient>
    <linearGradient
       id="linearGradient7409">
      <stop
         style="stop-color:#ffffff;stop-opacity:1;"
         offset="0"
         id="stop7411" />
      <stop
         id="stop7491"
         offset="1"
         style="stop-color:#ffffff;stop-opacity:1;" />
    </linearGradient>
    <linearGradient
       id="linearGradient3380"
       inkscape:collect="always">
      <stop
         id="stop3382"
         offset="0"
         style="stop-color:#a0a0a0;stop-opacity:1;" />
      <stop
         id="stop3384"
         offset="1"
         style="stop-color:#a0a0a0;stop-opacity:0;" />
    </linearGradient>
    <linearGradient
       id="linearGradient3209">
      <stop
         style="stop-color:#000000;stop-opacity:0.14509805;"
         offset="0"
         id="stop3211" />
      <stop
         style="stop-color:#000000;stop-opacity:0;"
         offset="1"
         id="stop3213" />
    </linearGradient>
    <linearGradient
       inkscape:collect="always"
       xlink:href="#linearGradient3209"
       id="linearGradient4613"
       gradientUnits="userSpaceOnUse"
       gradientTransform="translate(-751.4385,-749.59795)"
       x1="-10.657542"
       y1="413.41534"
       x2="89.638412"
       y2="413.41534" />
    <linearGradient
       id="linearGradient3381">
      <stop
         id="stop3383"
         offset="0"
         style="stop-color:#999999;stop-opacity:1" />
      <stop
         id="stop3385"
         offset="1"
         style="stop-color:#ffffff;stop-opacity:1" />
    </linearGradient>
    <linearGradient
       id="linearGradient5242">
      <stop
         id="stop5244"
         offset="0"
         style="stop-color:#000000;stop-opacity:0.14634146;" />
      <stop
         id="stop5246"
         offset="1"
         style="stop-color:#000000;stop-opacity:0;" />
    </linearGradient>
    <linearGradient
       id="linearGradient3209-1">
      <stop
         style="stop-color:#999999;stop-opacity:1"
         offset="0"
         id="stop3211-7" />
      <stop
         style="stop-color:#ffffff;stop-opacity:1"
         offset="1"
         id="stop3213-4" />
    </linearGradient>
    <linearGradient
       id="linearGradient3201">
      <stop
         style="stop-color:#000000;stop-opacity:0.14634146;"
         offset="0"
         id="stop3203" />
      <stop
         style="stop-color:#000000;stop-opacity:0;"
         offset="1"
         id="stop3205" />
    </linearGradient>
    <linearGradient
       id="linearGradient5393">
      <stop
         style="stop-color:#000000;stop-opacity:0.14634146;"
         offset="0"
         id="stop5395" />
      <stop
         style="stop-color:#000000;stop-opacity:0;"
         offset="1"
         id="stop5397" />
    </linearGradient>
    <linearGradient
       inkscape:collect="always"
       xlink:href="#linearGradient4013-2"
       id="linearGradient3288-5"
       gradientUnits="userSpaceOnUse"
       gradientTransform="translate(-1185.2167,-627.44024)"
       x1="1032.4149"
       y1="178.64546"
       x2="1123.3745"
       y2="195.81902" />
    <linearGradient
       inkscape:collect="always"
       id="linearGradient4013-2">
      <stop
         style="stop-color:#000000;stop-opacity:1;"
         offset="0"
         id="stop4015-3" />
      <stop
         style="stop-color:#000000;stop-opacity:0;"
         offset="1"
         id="stop4017-1" />
    </linearGradient>
    <linearGradient
       inkscape:collect="always"
       xlink:href="#linearGradient3380"
       id="linearGradient7739"
       gradientUnits="userSpaceOnUse"
       gradientTransform="matrix(0.218295,0,0,0.218295,-944.57259,-419.63759)"
       x1="283.33569"
       y1="632.30096"
       x2="283.33569"
       y2="554.51923" />
    <linearGradient
       inkscape:collect="always"
       xlink:href="#linearGradient7483"
       id="linearGradient7741"
       gradientUnits="userSpaceOnUse"
       gradientTransform="matrix(-0.25213073,0,0,0.25213073,-825.47456,-461.47458)"
       x1="151.15608"
       y1="417.88507"
       x2="405.22827"
       y2="348.39484" />
    <linearGradient
       inkscape:collect="always"
       xlink:href="#linearGradient7483"
       id="linearGradient7743"
       gradientUnits="userSpaceOnUse"
       x1="-703.42798"
       y1="-356.7641"
       x2="-792.3844"
       y2="-411.88065" />
    <linearGradient
       inkscape:collect="always"
       xlink:href="#linearGradient7483"
       id="linearGradient7778"
       gradientUnits="userSpaceOnUse"
       x1="-703.42798"
       y1="-356.7641"
       x2="-792.3844"
       y2="-411.88065"
       gradientTransform="matrix(1.1463045,0,0,1.1463045,1209.0335,-912.59217)" />
    <linearGradient
       inkscape:collect="always"
       xlink:href="#linearGradient7483"
       id="linearGradient7817"
       gradientUnits="userSpaceOnUse"
       gradientTransform="matrix(1.1463045,0,0,1.1463045,1209.0335,-912.59217)"
       x1="-703.42798"
       y1="-356.7641"
       x2="-792.3844"
       y2="-411.88065" />
    <linearGradient
       inkscape:collect="always"
       xlink:href="#linearGradient7483"
       id="linearGradient7850"
       gradientUnits="userSpaceOnUse"
       gradientTransform="matrix(1.1479464,0,0,1.1479464,1210.353,-911.83214)"
       x1="-703.42798"
       y1="-356.7641"
       x2="-792.3844"
       y2="-411.88065" />
    <linearGradient
       inkscape:collect="always"
       xlink:href="#linearGradient7483"
       id="linearGradient7889"
       gradientUnits="userSpaceOnUse"
       gradientTransform="matrix(1.1479464,0,0,1.1479464,1210.353,-911.83214)"
       x1="-703.42798"
       y1="-356.7641"
       x2="-792.3844"
       y2="-411.88065" />
    <linearGradient
       inkscape:collect="always"
       xlink:href="#linearGradient7483"
       id="linearGradient8822"
       gradientUnits="userSpaceOnUse"
       gradientTransform="matrix(1.1479464,0,0,1.1479464,1041.7145,-911.83214)"
       x1="-703.42798"
       y1="-356.7641"
       x2="-792.3844"
       y2="-411.88065" />
    <linearGradient
       inkscape:collect="always"
       xlink:href="#linearGradient8491"
       id="linearGradient8824"
       gradientUnits="userSpaceOnUse"
       x1="197.74998"
       y1="-1237.7839"
       x2="219.57437"
       y2="-1237.7839" />
    <linearGradient
       inkscape:collect="always"
       xlink:href="#linearGradient3380"
       id="linearGradient8978"
       gradientUnits="userSpaceOnUse"
       gradientTransform="matrix(0.218295,0,0,0.218295,-944.57259,-419.63759)"
       x1="283.33569"
       y1="632.30096"
       x2="283.33569"
       y2="554.51923" />
    <linearGradient
       inkscape:collect="always"
       xlink:href="#linearGradient7483"
       id="linearGradient8980"
       gradientUnits="userSpaceOnUse"
       gradientTransform="matrix(-0.25213073,0,0,0.25213073,-825.47456,-461.47458)"
       x1="151.15608"
       y1="417.88507"
       x2="405.22827"
       y2="348.39484" />
    <linearGradient
       inkscape:collect="always"
       xlink:href="#linearGradient3380"
       id="linearGradient9007"
       gradientUnits="userSpaceOnUse"
       gradientTransform="matrix(0.218295,0,0,0.218295,-944.57259,-419.63759)"
       x1="283.33569"
       y1="632.30096"
       x2="283.33569"
       y2="554.51923" />
    <linearGradient
       inkscape:collect="always"
       xlink:href="#linearGradient7483"
       id="linearGradient9009"
       gradientUnits="userSpaceOnUse"
       gradientTransform="matrix(-0.25213073,0,0,0.25213073,-825.47456,-461.47458)"
       x1="151.15608"
       y1="417.88507"
       x2="405.22827"
       y2="348.39484" />
    <linearGradient
       inkscape:collect="always"
       xlink:href="#linearGradient3209"
       id="linearGradient9376"
       gradientUnits="userSpaceOnUse"
       gradientTransform="translate(987.9578,-1779.133)"
       x1="-15.954843"
       y1="423.34778"
       x2="62.820827"
       y2="455.13159" />
    <linearGradient
       inkscape:collect="always"
       xlink:href="#linearGradient3209"
       id="linearGradient10185"
       gradientUnits="userSpaceOnUse"
       gradientTransform="translate(987.9578,-1779.133)"
       x1="-15.954843"
       y1="423.34778"
       x2="62.820827"
       y2="455.13159" />
    <linearGradient
       inkscape:collect="always"
       xlink:href="#linearGradient3381-7"
       id="linearGradient3442-1"
       gradientUnits="userSpaceOnUse"
       gradientTransform="matrix(0.80677749,0,0,0.80677749,933.89387,-1513.5569)"
       x1="23.649471"
       y1="215.32921"
       x2="139.43234"
       y2="224.29871" />
    <linearGradient
       id="linearGradient3381-7">
      <stop
         id="stop3383-4"
         offset="0"
         style="stop-color:#000000;stop-opacity:0.14634146;" />
      <stop
         id="stop3385-0"
         offset="1"
         style="stop-color:#000000;stop-opacity:0;" />
    </linearGradient>
    <linearGradient
       inkscape:collect="always"
       xlink:href="#linearGradient3381-8"
       id="linearGradient3442-4"
       gradientUnits="userSpaceOnUse"
       gradientTransform="matrix(0.80677749,0,0,0.80677749,933.89387,-1513.5569)"
       x1="23.649471"
       y1="215.32921"
       x2="139.43234"
       y2="224.29871" />
    <linearGradient
       id="linearGradient3381-8">
      <stop
         id="stop3383-8"
         offset="0"
         style="stop-color:#000000;stop-opacity:0.14634146;" />
      <stop
         id="stop3385-2"
         offset="1"
         style="stop-color:#000000;stop-opacity:0;" />
    </linearGradient>
    <linearGradient
       inkscape:collect="always"
       xlink:href="#linearGradient4192"
       id="linearGradient4841"
       gradientUnits="userSpaceOnUse"
       gradientTransform="matrix(0.80677749,0,0,0.80677749,933.89387,-1513.5569)"
       x1="-29.336311"
       y1="187.6321"
       x2="116.55212"
       y2="202.62271" />
    <linearGradient
       inkscape:collect="always"
       xlink:href="#linearGradient3381"
       id="linearGradient4862"
       gradientUnits="userSpaceOnUse"
       gradientTransform="matrix(0.80677749,0,0,0.80677749,933.89387,-1513.5569)"
       x1="44.413036"
       y1="211.7975"
       x2="192.50653"
       y2="239.24023" />
    <linearGradient
       inkscape:collect="always"
       xlink:href="#linearGradient3381-9"
       id="linearGradient4841-3"
       gradientUnits="userSpaceOnUse"
       gradientTransform="matrix(0.80677749,0,0,0.80677749,933.89387,-1513.5569)"
       x1="23.649471"
       y1="215.32921"
       x2="139.43234"
       y2="224.29871" />
    <linearGradient
       id="linearGradient3381-9">
      <stop
         id="stop3383-1"
         offset="0"
         style="stop-color:#000000;stop-opacity:0.14634146;" />
      <stop
         id="stop3385-28"
         offset="1"
         style="stop-color:#000000;stop-opacity:0;" />
    </linearGradient>
    <linearGradient
       inkscape:collect="always"
       xlink:href="#linearGradient4140"
       id="linearGradient4146"
       x1="1727.6387"
       y1="-1411.7721"
       x2="1881.1664"
       y2="-1383.1116"
       gradientUnits="userSpaceOnUse" />
    <linearGradient
       inkscape:collect="always"
       xlink:href="#linearGradient4148"
       id="linearGradient4154"
       x1="1873.8981"
       y1="-1368.5403"
       x2="1972.8037"
       y2="-1340.8514"
       gradientUnits="userSpaceOnUse" />
    <linearGradient
       inkscape:collect="always"
       xlink:href="#linearGradient4301"
       id="linearGradient4366"
       gradientUnits="userSpaceOnUse"
       gradientTransform="matrix(0.89801095,0,0,0.89801095,131.19619,-124.11974)"
       x1="1294.439"
       y1="-1337.8593"
       x2="1404.6068"
       y2="-1316.579" />
    <linearGradient
       inkscape:collect="always"
       xlink:href="#linearGradient4578"
       id="linearGradient4368"
       gradientUnits="userSpaceOnUse"
       gradientTransform="matrix(0.72449502,0,0,0.72449502,1131.5631,-1603.3582)"
       x1="44.001572"
       y1="258.65482"
       x2="249.80136"
       y2="334.51767" />
    <linearGradient
       inkscape:collect="always"
       xlink:href="#linearGradient3381-9"
       id="linearGradient4408"
       gradientUnits="userSpaceOnUse"
       gradientTransform="matrix(0.81433119,0,0,0.81433119,1448.0029,-1526.0278)"
       x1="23.649471"
       y1="215.32921"
       x2="177.03036"
       y2="237.97072" />
    <linearGradient
       inkscape:collect="always"
       xlink:href="#linearGradient4958"
       id="linearGradient4434"
       gradientUnits="userSpaceOnUse"
       x1="1797.6985"
       y1="-1309.038"
       x2="1898.9016"
       y2="-1295.2501"
       gradientTransform="matrix(1.0093628,0,0,1.0093628,-260.3774,-8.3690169)" />
    <linearGradient
       inkscape:collect="always"
       xlink:href="#linearGradient4148"
       id="linearGradient5073"
       gradientUnits="userSpaceOnUse"
       x1="1873.8981"
       y1="-1368.5403"
       x2="1972.8037"
       y2="-1340.8514" />
    <linearGradient
       inkscape:collect="always"
       xlink:href="#linearGradient4140"
       id="linearGradient5075"
       gradientUnits="userSpaceOnUse"
       x1="1727.6387"
       y1="-1411.7721"
       x2="1881.1664"
       y2="-1383.1116" />
    <linearGradient
       inkscape:collect="always"
       xlink:href="#linearGradient5204"
       id="linearGradient5375"
       gradientUnits="userSpaceOnUse"
       gradientTransform="matrix(0.85462947,-0.05153301,0.05153301,0.85462947,1859.6402,-1823.4019)"
       x1="146.39014"
       y1="476.95825"
       x2="352.09073"
       y2="534.85553" />
    <linearGradient
       inkscape:collect="always"
       xlink:href="#linearGradient5222"
       id="linearGradient5387"
       gradientUnits="userSpaceOnUse"
       gradientTransform="matrix(0.85618175,0,0,0.85618175,1893.987,-1844.5726)"
       x1="253.90569"
       y1="585.07233"
       x2="426.36124"
       y2="603.32697" />
    <linearGradient
       inkscape:collect="always"
       xlink:href="#linearGradient5210"
       id="linearGradient5479"
       gradientUnits="userSpaceOnUse"
       x1="1727.6387"
       y1="-1411.7721"
       x2="1881.1664"
       y2="-1383.1116"
       gradientTransform="matrix(1.0067898,0,0,1.0067898,-47.9263,14.280425)" />
    <linearGradient
       inkscape:collect="always"
       xlink:href="#linearGradient5216"
       id="linearGradient5483"
       gradientUnits="userSpaceOnUse"
       x1="1855.1234"
       y1="-1338.0314"
       x2="1972.8037"
       y2="-1340.8514"
       gradientTransform="matrix(1.0067898,0,0,1.0067898,-47.9263,14.280425)" />
    <linearGradient
       inkscape:collect="always"
       xlink:href="#linearGradient4238"
       id="linearGradient4548"
       gradientUnits="userSpaceOnUse"
       gradientTransform="matrix(1.3892934,0,0,1.3892934,-954.13813,626.98717)"
       x1="2477.7629"
       y1="-1359.9611"
       x2="2660.179"
       y2="-1347.0822" />
    <linearGradient
       inkscape:collect="always"
       xlink:href="#linearGradient3209-1"
       id="linearGradient4550"
       gradientUnits="userSpaceOnUse"
       gradientTransform="matrix(1.2430619,0,0,1.2430619,1939.3946,-1727.7143)"
       x1="356.90396"
       y1="296.15756"
       x2="557.15393"
       y2="348.7507" />
    <linearGradient
       inkscape:collect="always"
       xlink:href="#linearGradient4180"
       id="linearGradient4650"
       gradientUnits="userSpaceOnUse"
       gradientTransform="matrix(1.1479464,0,0,1.1479464,1490.7959,-908.02637)"
       x1="-724.58618"
       y1="-369.8822"
       x2="-798.73187"
       y2="-417.80493" />
    <linearGradient
       inkscape:collect="always"
       xlink:href="#linearGradient8491"
       id="linearGradient4652"
       gradientUnits="userSpaceOnUse"
       gradientTransform="translate(449.08135,3.8057741)"
       x1="198.13084"
       y1="-1234.7371"
       x2="219.19351"
       y2="-1249.9716" />
    <linearGradient
       inkscape:collect="always"
       xlink:href="#linearGradient4174"
       id="linearGradient4654"
       gradientUnits="userSpaceOnUse"
       gradientTransform="matrix(-0.30453207,0,0,0.30453207,560.30946,-1456.3752)"
       x1="237.87007"
       y1="416.54456"
       x2="517.56934"
       y2="333.29718" />
    <linearGradient
       inkscape:collect="always"
       xlink:href="#linearGradient4503"
       id="linearGradient4656"
       gradientUnits="userSpaceOnUse"
       x1="826.21851"
       y1="-1230.2991"
       x2="855.00775"
       y2="-1248.1996" />
    <linearGradient
       inkscape:collect="always"
       xlink:href="#linearGradient4186"
       id="linearGradient4658"
       gradientUnits="userSpaceOnUse"
       gradientTransform="matrix(1.1730997,0,0,1.1730997,775.78934,-1872.575)"
       x1="-76.412094"
       y1="389.39233"
       x2="49.569923"
       y2="439.81024" />
    <linearGradient
       inkscape:collect="always"
       xlink:href="#linearGradient4238-3"
       id="linearGradient4548-2"
       gradientUnits="userSpaceOnUse"
       gradientTransform="matrix(1.3892934,0,0,1.3892934,-954.13813,626.98717)"
       x1="2477.7629"
       y1="-1359.9611"
       x2="2660.179"
       y2="-1347.0822" />
    <linearGradient
       inkscape:collect="always"
       id="linearGradient4238-3">
      <stop
         style="stop-color:#999999;stop-opacity:1"
         offset="0"
         id="stop4240-2" />
      <stop
         style="stop-color:#ffffff;stop-opacity:1"
         offset="1"
         id="stop4242-2" />
    </linearGradient>
    <linearGradient
       inkscape:collect="always"
       xlink:href="#linearGradient3209-1-6"
       id="linearGradient4550-1"
       gradientUnits="userSpaceOnUse"
       gradientTransform="matrix(1.2430619,0,0,1.2430619,1939.3946,-1727.7143)"
       x1="356.90396"
       y1="296.15756"
       x2="557.15393"
       y2="348.7507" />
    <linearGradient
       id="linearGradient3209-1-6">
      <stop
         style="stop-color:#999999;stop-opacity:1"
         offset="0"
         id="stop3211-7-8" />
      <stop
         style="stop-color:#ffffff;stop-opacity:1"
         offset="1"
         id="stop3213-4-5" />
    </linearGradient>
    <linearGradient
       inkscape:collect="always"
       xlink:href="#linearGradient5222-6"
       id="linearGradient5387-7"
       gradientUnits="userSpaceOnUse"
       gradientTransform="matrix(0.85618175,0,0,0.85618175,1893.987,-1844.5726)"
       x1="253.90569"
       y1="585.07233"
       x2="426.36124"
       y2="603.32697" />
    <linearGradient
       id="linearGradient5222-6">
      <stop
         id="stop5224-1"
         offset="0"
         style="stop-color:#b3b3b3;stop-opacity:1" />
      <stop
         id="stop5226-8"
         offset="1"
         style="stop-color:#ffffff;stop-opacity:1" />
    </linearGradient>
    <linearGradient
       inkscape:collect="always"
       xlink:href="#linearGradient5204-2"
       id="linearGradient5375-9"
       gradientUnits="userSpaceOnUse"
       gradientTransform="matrix(0.85462947,-0.05153301,0.05153301,0.85462947,1859.6402,-1823.4019)"
       x1="146.39014"
       y1="476.95825"
       x2="352.09073"
       y2="534.85553" />
    <linearGradient
       id="linearGradient5204-2">
      <stop
         id="stop5206-7"
         offset="0"
         style="stop-color:#b3b3b3;stop-opacity:1" />
      <stop
         id="stop5208-9"
         offset="1"
         style="stop-color:#ffffff;stop-opacity:1" />
    </linearGradient>
    <linearGradient
       inkscape:collect="always"
       xlink:href="#linearGradient5216-4"
       id="linearGradient5483-5"
       gradientUnits="userSpaceOnUse"
       x1="1855.1234"
       y1="-1338.0314"
       x2="1972.8037"
       y2="-1340.8514"
       gradientTransform="matrix(1.0067898,0,0,1.0067898,-47.9263,14.280425)" />
    <linearGradient
       id="linearGradient5216-4"
       inkscape:collect="always">
      <stop
         id="stop5218-3"
         offset="0"
         style="stop-color:#b3b3b3;stop-opacity:1" />
      <stop
         id="stop5220-1"
         offset="1"
         style="stop-color:#ffffff;stop-opacity:1" />
    </linearGradient>
    <linearGradient
       inkscape:collect="always"
       xlink:href="#linearGradient5210-3"
       id="linearGradient5479-2"
       gradientUnits="userSpaceOnUse"
       x1="1727.6387"
       y1="-1411.7721"
       x2="1881.1664"
       y2="-1383.1116"
       gradientTransform="matrix(1.0067898,0,0,1.0067898,-47.9263,14.280425)" />
    <linearGradient
       id="linearGradient5210-3"
       inkscape:collect="always">
      <stop
         id="stop5212-3"
         offset="0"
         style="stop-color:#b3b3b3;stop-opacity:1" />
      <stop
         id="stop5214-4"
         offset="1"
         style="stop-color:#ffffff;stop-opacity:1" />
    </linearGradient>
    <linearGradient
       inkscape:collect="always"
       xlink:href="#linearGradient4958-1"
       id="linearGradient4434-1"
       gradientUnits="userSpaceOnUse"
       x1="1797.6985"
       y1="-1309.038"
       x2="1898.9016"
       y2="-1295.2501"
       gradientTransform="matrix(1.0093628,0,0,1.0093628,-260.3774,-8.3690169)" />
    <linearGradient
       inkscape:collect="always"
       id="linearGradient4958-1">
      <stop
         style="stop-color:#cccccc;stop-opacity:1"
         offset="0"
         id="stop4960-3" />
      <stop
         style="stop-color:#cccccc;stop-opacity:0;"
         offset="1"
         id="stop4962-8" />
    </linearGradient>
    <linearGradient
       inkscape:collect="always"
       xlink:href="#linearGradient3381-9-4"
       id="linearGradient4408-7"
       gradientUnits="userSpaceOnUse"
       gradientTransform="matrix(0.81433119,0,0,0.81433119,1448.0029,-1526.0278)"
       x1="23.649471"
       y1="215.32921"
       x2="177.03036"
       y2="237.97072" />
    <linearGradient
       id="linearGradient3381-9-4">
      <stop
         id="stop3383-1-2"
         offset="0"
         style="stop-color:#000000;stop-opacity:0.14634146;" />
      <stop
         id="stop3385-28-7"
         offset="1"
         style="stop-color:#000000;stop-opacity:0;" />
    </linearGradient>
    <linearGradient
       inkscape:collect="always"
       xlink:href="#linearGradient4578-9"
       id="linearGradient4368-7"
       gradientUnits="userSpaceOnUse"
       gradientTransform="matrix(0.72449502,0,0,0.72449502,1131.5631,-1603.3582)"
       x1="44.001572"
       y1="258.65482"
       x2="249.80136"
       y2="334.51767" />
    <linearGradient
       id="linearGradient4578-9">
      <stop
         style="stop-color:#999999;stop-opacity:1"
         offset="0"
         id="stop4580-3" />
      <stop
         style="stop-color:#ffffff;stop-opacity:1"
         offset="1"
         id="stop4582-1" />
    </linearGradient>
    <linearGradient
       inkscape:collect="always"
       xlink:href="#linearGradient4301-8"
       id="linearGradient4366-9"
       gradientUnits="userSpaceOnUse"
       gradientTransform="matrix(0.89801095,0,0,0.89801095,131.19619,-124.11974)"
       x1="1294.439"
       y1="-1337.8593"
       x2="1404.6068"
       y2="-1316.579" />
    <linearGradient
       inkscape:collect="always"
       id="linearGradient4301-8">
      <stop
         style="stop-color:#e6e6e6;stop-opacity:1;"
         offset="0"
         id="stop4303-6" />
      <stop
         style="stop-color:#e6e6e6;stop-opacity:0;"
         offset="1"
         id="stop4305-5" />
    </linearGradient>
    <linearGradient
       inkscape:collect="always"
       xlink:href="#linearGradient4192-2"
       id="linearGradient4841-0"
       gradientUnits="userSpaceOnUse"
       gradientTransform="matrix(0.80677749,0,0,0.80677749,933.89387,-1513.5569)"
       x1="-29.336311"
       y1="187.6321"
       x2="116.55212"
       y2="202.62271" />
    <linearGradient
       id="linearGradient4192-2">
      <stop
         style="stop-color:#999999;stop-opacity:1"
         offset="0"
         id="stop4194-8" />
      <stop
         style="stop-color:#ffffff;stop-opacity:1"
         offset="1"
         id="stop4196-6" />
    </linearGradient>
    <linearGradient
       inkscape:collect="always"
       xlink:href="#linearGradient3381-2"
       id="linearGradient4862-0"
       gradientUnits="userSpaceOnUse"
       gradientTransform="matrix(0.80677749,0,0,0.80677749,933.89387,-1513.5569)"
       x1="44.413036"
       y1="211.7975"
       x2="192.50653"
       y2="239.24023" />
    <linearGradient
       id="linearGradient3381-2">
      <stop
         id="stop3383-48"
         offset="0"
         style="stop-color:#999999;stop-opacity:1" />
      <stop
         id="stop3385-6"
         offset="1"
         style="stop-color:#ffffff;stop-opacity:1" />
    </linearGradient>
    <linearGradient
       inkscape:collect="always"
       xlink:href="#linearGradient4503-0"
       id="linearGradient4656-5"
       gradientUnits="userSpaceOnUse"
       x1="826.21851"
       y1="-1230.2991"
       x2="855.00775"
       y2="-1248.1996" />
    <linearGradient
       inkscape:collect="always"
       id="linearGradient4503-0">
      <stop
         style="stop-color:#999999;stop-opacity:1;"
         offset="0"
         id="stop4505-9" />
      <stop
         style="stop-color:#999999;stop-opacity:0;"
         offset="1"
         id="stop4507-0" />
    </linearGradient>
    <linearGradient
       inkscape:collect="always"
       xlink:href="#linearGradient4186-6"
       id="linearGradient4658-0"
       gradientUnits="userSpaceOnUse"
       gradientTransform="matrix(1.1730997,0,0,1.1730997,775.78934,-1872.575)"
       x1="-76.412094"
       y1="389.39233"
       x2="49.569923"
       y2="439.81024" />
    <linearGradient
       id="linearGradient4186-6">
      <stop
         id="stop4188-1"
         offset="0"
         style="stop-color:#999999;stop-opacity:1" />
      <stop
         id="stop4190-3"
         offset="1"
         style="stop-color:#ffffff;stop-opacity:1" />
    </linearGradient>
    <linearGradient
       inkscape:collect="always"
       xlink:href="#linearGradient4174-9"
       id="linearGradient4654-8"
       gradientUnits="userSpaceOnUse"
       gradientTransform="matrix(-0.30453207,0,0,0.30453207,560.30946,-1456.3752)"
       x1="237.87007"
       y1="416.54456"
       x2="517.56934"
       y2="333.29718" />
    <linearGradient
       id="linearGradient4174-9">
      <stop
         style="stop-color:#ffffff;stop-opacity:1;"
         offset="0"
         id="stop4176-3" />
      <stop
         style="stop-color:#999999;stop-opacity:1"
         offset="1"
         id="stop4178-4" />
    </linearGradient>
    <linearGradient
       inkscape:collect="always"
       xlink:href="#linearGradient4180-6"
       id="linearGradient4650-4"
       gradientUnits="userSpaceOnUse"
       gradientTransform="matrix(1.1479464,0,0,1.1479464,1490.7959,-908.02637)"
       x1="-724.58618"
       y1="-369.8822"
       x2="-798.73187"
       y2="-417.80493" />
    <linearGradient
       id="linearGradient4180-6">
      <stop
         style="stop-color:#ffffff;stop-opacity:1;"
         offset="0"
         id="stop4182-0" />
      <stop
         style="stop-color:#999999;stop-opacity:1"
         offset="1"
         id="stop4184-6" />
    </linearGradient>
    <linearGradient
       inkscape:collect="always"
       xlink:href="#linearGradient8491-1"
       id="linearGradient4652-6"
       gradientUnits="userSpaceOnUse"
       gradientTransform="translate(449.08135,3.8057741)"
       x1="198.13084"
       y1="-1234.7371"
       x2="219.19351"
       y2="-1249.9716" />
    <linearGradient
       id="linearGradient8491-1">
      <stop
         style="stop-color:#666666;stop-opacity:1;"
         offset="0"
         id="stop8493-8" />
      <stop
         style="stop-color:#666666;stop-opacity:0;"
         offset="1"
         id="stop8495-4" />
    </linearGradient>
    <linearGradient
       inkscape:collect="always"
       xlink:href="#linearGradient3381-2"
       id="linearGradient4052"
       gradientUnits="userSpaceOnUse"
       gradientTransform="matrix(0.80677749,0,0,0.80677749,2142.2501,-1117.9041)"
       x1="44.413036"
       y1="211.7975"
       x2="192.50653"
       y2="239.24023" />
    <linearGradient
       inkscape:collect="always"
       xlink:href="#linearGradient4192-2"
       id="linearGradient4055"
       gradientUnits="userSpaceOnUse"
       gradientTransform="matrix(0.80677749,0,0,0.80677749,2142.2501,-1117.9041)"
       x1="-29.336311"
       y1="187.6321"
       x2="116.55212"
       y2="202.62271" />
    <linearGradient
       inkscape:collect="always"
       xlink:href="#linearGradient4301-8"
       id="linearGradient4088"
       gradientUnits="userSpaceOnUse"
       gradientTransform="matrix(0.89801095,0,0,0.89801095,1339.5524,271.53307)"
       x1="1294.439"
       y1="-1337.8593"
       x2="1404.6068"
       y2="-1316.579" />
    <linearGradient
       inkscape:collect="always"
       xlink:href="#linearGradient4578-9"
       id="linearGradient4109"
       gradientUnits="userSpaceOnUse"
       gradientTransform="matrix(0.72449502,0,0,0.72449502,2339.9193,-1207.7054)"
       x1="44.001572"
       y1="258.65482"
       x2="249.80136"
       y2="334.51767" />
    <linearGradient
       inkscape:collect="always"
       xlink:href="#linearGradient3381-9-4"
       id="linearGradient4131"
       gradientUnits="userSpaceOnUse"
       gradientTransform="matrix(0.81433119,0,0,0.81433119,2656.3591,-1130.375)"
       x1="23.649471"
       y1="215.32921"
       x2="177.03036"
       y2="237.97072" />
    <linearGradient
       inkscape:collect="always"
       xlink:href="#linearGradient4958-1"
       id="linearGradient4155"
       gradientUnits="userSpaceOnUse"
       gradientTransform="matrix(1.0093628,0,0,1.0093628,947.9788,387.28379)"
       x1="1797.6985"
       y1="-1309.038"
       x2="1898.9016"
       y2="-1295.2501" />
    <linearGradient
       inkscape:collect="always"
       xlink:href="#linearGradient5210-3"
       id="linearGradient4193"
       gradientUnits="userSpaceOnUse"
       gradientTransform="matrix(1.0067898,0,0,1.0067898,1160.4299,409.93323)"
       x1="1727.6387"
       y1="-1411.7721"
       x2="1881.1664"
       y2="-1383.1116" />
    <linearGradient
       inkscape:collect="always"
       xlink:href="#linearGradient5216-4"
       id="linearGradient4197"
       gradientUnits="userSpaceOnUse"
       gradientTransform="matrix(1.0067898,0,0,1.0067898,1160.4299,409.93323)"
       x1="1855.1234"
       y1="-1338.0314"
       x2="1972.8037"
       y2="-1340.8514" />
    <linearGradient
       inkscape:collect="always"
       xlink:href="#linearGradient3209-1-6"
       id="linearGradient4333"
       gradientUnits="userSpaceOnUse"
       gradientTransform="matrix(1.2430619,0,0,1.2430619,3094.8633,-1464.8012)"
       x1="356.90396"
       y1="296.15756"
       x2="557.15393"
       y2="348.7507" />
    <linearGradient
       inkscape:collect="always"
       xlink:href="#linearGradient4238-3"
       id="linearGradient4337"
       gradientUnits="userSpaceOnUse"
       gradientTransform="matrix(1.3892934,0,0,1.3892934,201.33057,889.90028)"
       x1="2477.7629"
       y1="-1359.9611"
       x2="2660.179"
       y2="-1347.0822" />
    <linearGradient
       inkscape:collect="always"
       xlink:href="#linearGradient5204-2"
       id="linearGradient4369"
       gradientUnits="userSpaceOnUse"
       gradientTransform="matrix(0.85462947,-0.05153301,0.05153301,0.85462947,3067.9964,-1427.7491)"
       x1="146.39014"
       y1="476.95825"
       x2="352.09073"
       y2="534.85553" />
    <linearGradient
       inkscape:collect="always"
       xlink:href="#linearGradient4186-6"
       id="linearGradient4416"
       gradientUnits="userSpaceOnUse"
       gradientTransform="matrix(1.1730997,0,0,1.1730997,1984.1455,-1476.9222)"
       x1="-76.412094"
       y1="389.39233"
       x2="49.569923"
       y2="439.81024" />
    <linearGradient
       inkscape:collect="always"
       xlink:href="#linearGradient4503-0"
       id="linearGradient4424"
       gradientUnits="userSpaceOnUse"
       x1="826.21851"
       y1="-1230.2991"
       x2="855.00775"
       y2="-1248.1996"
       gradientTransform="translate(1208.3562,395.65281)" />
    <linearGradient
       inkscape:collect="always"
       xlink:href="#linearGradient4174-9"
       id="linearGradient4450"
       gradientUnits="userSpaceOnUse"
       gradientTransform="matrix(-0.30453207,0,0,0.30453207,1768.6657,-1060.7224)"
       x1="237.87007"
       y1="416.54456"
       x2="517.56934"
       y2="333.29718" />
    <linearGradient
       inkscape:collect="always"
       xlink:href="#linearGradient8491-1"
       id="linearGradient4479"
       gradientUnits="userSpaceOnUse"
       gradientTransform="translate(1657.4375,399.45858)"
       x1="198.13084"
       y1="-1234.7371"
       x2="219.19351"
       y2="-1249.9716" />
    <linearGradient
       inkscape:collect="always"
       xlink:href="#linearGradient4180-6"
       id="linearGradient4491"
       gradientUnits="userSpaceOnUse"
       gradientTransform="matrix(1.1479464,0,0,1.1479464,2699.1521,-512.37356)"
       x1="-724.58618"
       y1="-369.8822"
       x2="-798.73187"
       y2="-417.80493" />
    <linearGradient
       inkscape:collect="always"
       xlink:href="#linearGradient5222-6"
       id="linearGradient4504"
       gradientUnits="userSpaceOnUse"
       gradientTransform="matrix(0.85618175,0,0,0.85618175,3102.3432,-1448.9198)"
       x1="253.90569"
       y1="585.07233"
       x2="426.36124"
       y2="603.32697" />
    <linearGradient
       inkscape:collect="always"
       xlink:href="#linearGradient4503-0"
       id="linearGradient4659"
       gradientUnits="userSpaceOnUse"
       gradientTransform="translate(1208.3562,395.65281)"
       x1="826.21851"
       y1="-1230.2991"
       x2="855.00775"
       y2="-1248.1996" />
    <linearGradient
       inkscape:collect="always"
       xlink:href="#linearGradient4186-6"
       id="linearGradient4661"
       gradientUnits="userSpaceOnUse"
       gradientTransform="matrix(1.1730997,0,0,1.1730997,1984.1455,-1476.9222)"
       x1="-76.412094"
       y1="389.39233"
       x2="49.569923"
       y2="439.81024" />
    <linearGradient
       inkscape:collect="always"
       xlink:href="#linearGradient4186-6"
       id="linearGradient4686"
       gradientUnits="userSpaceOnUse"
       gradientTransform="matrix(1.1730997,0,0,1.1730997,1984.1455,-1476.9222)"
       x1="-76.412094"
       y1="389.39233"
       x2="49.569923"
       y2="439.81024" />
    <linearGradient
       inkscape:collect="always"
       xlink:href="#linearGradient4503-0"
       id="linearGradient4694"
       gradientUnits="userSpaceOnUse"
       gradientTransform="translate(1208.3562,395.65281)"
       x1="826.21851"
       y1="-1230.2991"
       x2="855.00775"
       y2="-1248.1996" />
    <linearGradient
       inkscape:collect="always"
       xlink:href="#linearGradient5222-6"
       id="linearGradient3904"
       gradientUnits="userSpaceOnUse"
       gradientTransform="matrix(0.85618175,0,0,0.85618175,3102.3432,-1448.9198)"
       x1="253.90569"
       y1="585.07233"
       x2="426.36124"
       y2="603.32697" />
    <linearGradient
       inkscape:collect="always"
       xlink:href="#linearGradient5204-2"
       id="linearGradient3906"
       gradientUnits="userSpaceOnUse"
       gradientTransform="matrix(0.85462947,-0.05153301,0.05153301,0.85462947,3067.9964,-1427.7491)"
       x1="146.39014"
       y1="476.95825"
       x2="352.09073"
       y2="534.85553" />
    <linearGradient
       inkscape:collect="always"
       xlink:href="#linearGradient5204-2"
       id="linearGradient3932"
       gradientUnits="userSpaceOnUse"
       gradientTransform="matrix(0.85462947,-0.05153301,0.05153301,0.85462947,3067.9964,-1427.7491)"
       x1="146.39014"
       y1="476.95825"
       x2="352.09073"
       y2="534.85553" />
    <linearGradient
       inkscape:collect="always"
       xlink:href="#linearGradient5222-6"
       id="linearGradient3949"
       gradientUnits="userSpaceOnUse"
       gradientTransform="matrix(0.85618175,0,0,0.85618175,3102.3432,-1448.9198)"
       x1="253.90569"
       y1="585.07233"
       x2="426.36124"
       y2="603.32697" />
    <linearGradient
       inkscape:collect="always"
       xlink:href="#linearGradient4578-9"
       id="linearGradient3908"
       gradientUnits="userSpaceOnUse"
       gradientTransform="matrix(0.72449502,0,0,0.72449502,2339.9193,-1207.7054)"
       x1="44.001572"
       y1="258.65482"
       x2="249.80136"
       y2="334.51767" />
    <linearGradient
       inkscape:collect="always"
       xlink:href="#linearGradient4301-8"
       id="linearGradient3910"
       gradientUnits="userSpaceOnUse"
       gradientTransform="matrix(0.89801095,0,0,0.89801095,1339.5524,271.53307)"
       x1="1294.439"
       y1="-1337.8593"
       x2="1404.6068"
       y2="-1316.579" />
    <linearGradient
       inkscape:collect="always"
       xlink:href="#linearGradient4301-8"
       id="linearGradient3942"
       gradientUnits="userSpaceOnUse"
       gradientTransform="matrix(0.89801095,0,0,0.89801095,1339.5524,271.53307)"
       x1="1294.439"
       y1="-1337.8593"
       x2="1404.6068"
       y2="-1316.579" />
    <linearGradient
       inkscape:collect="always"
       xlink:href="#linearGradient4578-9"
       id="linearGradient3961"
       gradientUnits="userSpaceOnUse"
       gradientTransform="matrix(0.72449502,0,0,0.72449502,2339.9193,-1207.7054)"
       x1="44.001572"
       y1="258.65482"
       x2="249.80136"
       y2="334.51767" />
    <linearGradient
       inkscape:collect="always"
       xlink:href="#linearGradient4238-3"
       id="linearGradient4014"
       gradientUnits="userSpaceOnUse"
       gradientTransform="matrix(1.3892934,0,0,1.3892934,201.33057,889.90028)"
       x1="2477.7629"
       y1="-1359.9611"
       x2="2660.179"
       y2="-1347.0822" />
    <linearGradient
       inkscape:collect="always"
       xlink:href="#linearGradient3209-1-6"
       id="linearGradient4016"
       gradientUnits="userSpaceOnUse"
       gradientTransform="matrix(1.2430619,0,0,1.2430619,3094.8633,-1464.8012)"
       x1="356.90396"
       y1="296.15756"
       x2="557.15393"
       y2="348.7507" />
    <linearGradient
       inkscape:collect="always"
       xlink:href="#linearGradient3209-1-6"
       id="linearGradient4926"
       gradientUnits="userSpaceOnUse"
       gradientTransform="matrix(1.1331463,0,0,1.1331463,3139.3281,-1414.4012)"
       x1="356.90396"
       y1="296.15756"
       x2="557.15393"
       y2="348.7507" />
    <linearGradient
       inkscape:collect="always"
       xlink:href="#linearGradient4238-3"
       id="linearGradient4930"
       gradientUnits="userSpaceOnUse"
       gradientTransform="matrix(1.2664476,0,0,1.2664476,501.65094,732.08996)"
       x1="2477.7629"
       y1="-1359.9611"
       x2="2660.179"
       y2="-1347.0822" />
    <linearGradient
       inkscape:collect="always"
       xlink:href="#linearGradient4180-6"
       id="linearGradient5325"
       gradientUnits="userSpaceOnUse"
       gradientTransform="matrix(1.1479464,0,0,1.1479464,2699.1521,-512.37356)"
       x1="-724.58618"
       y1="-369.8822"
       x2="-798.73187"
       y2="-417.80493" />
    <linearGradient
       inkscape:collect="always"
       xlink:href="#linearGradient8491-1"
       id="linearGradient5327"
       gradientUnits="userSpaceOnUse"
       gradientTransform="translate(1657.4375,399.45858)"
       x1="198.13084"
       y1="-1234.7371"
       x2="219.19351"
       y2="-1249.9716" />
    <linearGradient
       inkscape:collect="always"
       xlink:href="#linearGradient4174-9"
       id="linearGradient5329"
       gradientUnits="userSpaceOnUse"
       gradientTransform="matrix(-0.30453207,0,0,0.30453207,1768.6657,-1060.7224)"
       x1="237.87007"
       y1="416.54456"
       x2="517.56934"
       y2="333.29718" />
    <linearGradient
       inkscape:collect="always"
       xlink:href="#linearGradient4192-2"
       id="linearGradient5331"
       gradientUnits="userSpaceOnUse"
       gradientTransform="matrix(0.80677749,0,0,0.80677749,2142.2501,-1117.9041)"
       x1="-29.336311"
       y1="187.6321"
       x2="116.55212"
       y2="202.62271" />
    <linearGradient
       inkscape:collect="always"
       xlink:href="#linearGradient3381-2"
       id="linearGradient5333"
       gradientUnits="userSpaceOnUse"
       gradientTransform="matrix(0.80677749,0,0,0.80677749,2142.2501,-1117.9041)"
       x1="44.413036"
       y1="211.7975"
       x2="192.50653"
       y2="239.24023" />
    <linearGradient
       inkscape:collect="always"
       xlink:href="#linearGradient4958-1"
       id="linearGradient5335"
       gradientUnits="userSpaceOnUse"
       gradientTransform="matrix(1.0093628,0,0,1.0093628,947.9788,387.28379)"
       x1="1797.6985"
       y1="-1309.038"
       x2="1898.9016"
       y2="-1295.2501" />
    <linearGradient
       inkscape:collect="always"
       xlink:href="#linearGradient3381-9-4"
       id="linearGradient5337"
       gradientUnits="userSpaceOnUse"
       gradientTransform="matrix(0.81433119,0,0,0.81433119,2656.3591,-1130.375)"
       x1="23.649471"
       y1="215.32921"
       x2="177.03036"
       y2="237.97072" />
    <linearGradient
       inkscape:collect="always"
       xlink:href="#linearGradient5216-4"
       id="linearGradient5339"
       gradientUnits="userSpaceOnUse"
       gradientTransform="matrix(1.0067898,0,0,1.0067898,1160.4299,409.93323)"
       x1="1855.1234"
       y1="-1338.0314"
       x2="1972.8037"
       y2="-1340.8514" />
    <linearGradient
       inkscape:collect="always"
       xlink:href="#linearGradient5210-3"
       id="linearGradient5341"
       gradientUnits="userSpaceOnUse"
       gradientTransform="matrix(1.0067898,0,0,1.0067898,1160.4299,409.93323)"
       x1="1727.6387"
       y1="-1411.7721"
       x2="1881.1664"
       y2="-1383.1116" />
    <linearGradient
       inkscape:collect="always"
       xlink:href="#linearGradient5222-6"
       id="linearGradient5343"
       gradientUnits="userSpaceOnUse"
       gradientTransform="matrix(0.85618175,0,0,0.85618175,3102.3432,-1448.9198)"
       x1="253.90569"
       y1="585.07233"
       x2="426.36124"
       y2="603.32697" />
    <linearGradient
       inkscape:collect="always"
       xlink:href="#linearGradient5204-2"
       id="linearGradient5345"
       gradientUnits="userSpaceOnUse"
       gradientTransform="matrix(0.85462947,-0.05153301,0.05153301,0.85462947,3067.9964,-1427.7491)"
       x1="146.39014"
       y1="476.95825"
       x2="352.09073"
       y2="534.85553" />
    <linearGradient
       inkscape:collect="always"
       xlink:href="#linearGradient4503-0"
       id="linearGradient5347"
       gradientUnits="userSpaceOnUse"
       gradientTransform="translate(1208.3562,395.65281)"
       x1="826.21851"
       y1="-1230.2991"
       x2="855.00775"
       y2="-1248.1996" />
    <linearGradient
       inkscape:collect="always"
       xlink:href="#linearGradient4186-6"
       id="linearGradient5349"
       gradientUnits="userSpaceOnUse"
       gradientTransform="matrix(1.1730997,0,0,1.1730997,1984.1455,-1476.9222)"
       x1="-76.412094"
       y1="389.39233"
       x2="49.569923"
       y2="439.81024" />
    <linearGradient
       inkscape:collect="always"
       xlink:href="#linearGradient4578-9"
       id="linearGradient5351"
       gradientUnits="userSpaceOnUse"
       gradientTransform="matrix(0.72449502,0,0,0.72449502,2339.9193,-1207.7054)"
       x1="44.001572"
       y1="258.65482"
       x2="249.80136"
       y2="334.51767" />
    <linearGradient
       inkscape:collect="always"
       xlink:href="#linearGradient4301-8"
       id="linearGradient5353"
       gradientUnits="userSpaceOnUse"
       gradientTransform="matrix(0.89801095,0,0,0.89801095,1339.5524,271.53307)"
       x1="1294.439"
       y1="-1337.8593"
       x2="1404.6068"
       y2="-1316.579" />
    <linearGradient
       inkscape:collect="always"
       xlink:href="#linearGradient4238-3"
       id="linearGradient5355"
       gradientUnits="userSpaceOnUse"
       gradientTransform="matrix(1.2664476,0,0,1.2664476,501.65094,732.08996)"
       x1="2477.7629"
       y1="-1359.9611"
       x2="2660.179"
       y2="-1347.0822" />
    <linearGradient
       inkscape:collect="always"
       xlink:href="#linearGradient3209-1-6"
       id="linearGradient5357"
       gradientUnits="userSpaceOnUse"
       gradientTransform="matrix(1.1331463,0,0,1.1331463,3139.3281,-1414.4012)"
       x1="356.90396"
       y1="296.15756"
       x2="557.15393"
       y2="348.7507" />
    <linearGradient
       inkscape:collect="always"
       xlink:href="#linearGradient5222-6"
       id="linearGradient3933"
       gradientUnits="userSpaceOnUse"
       gradientTransform="matrix(0.85618175,0,0,0.85618175,3102.3432,-1448.9198)"
       x1="253.90569"
       y1="585.07233"
       x2="426.36124"
       y2="603.32697" />
    <linearGradient
       inkscape:collect="always"
       xlink:href="#linearGradient5204-2"
       id="linearGradient3935"
       gradientUnits="userSpaceOnUse"
       gradientTransform="matrix(0.85462947,-0.05153301,0.05153301,0.85462947,3067.9964,-1427.7491)"
       x1="146.39014"
       y1="476.95825"
       x2="352.09073"
       y2="534.85553" />
    <linearGradient
       inkscape:collect="always"
       xlink:href="#linearGradient5204-2"
       id="linearGradient3962"
       gradientUnits="userSpaceOnUse"
       gradientTransform="matrix(0.85462947,-0.05153301,0.05153301,0.85462947,3067.9964,-1427.7491)"
       x1="146.39014"
       y1="476.95825"
       x2="352.09073"
       y2="534.85553" />
    <linearGradient
       inkscape:collect="always"
       xlink:href="#linearGradient5222-6"
       id="linearGradient3979"
       gradientUnits="userSpaceOnUse"
       gradientTransform="matrix(0.85618175,0,0,0.85618175,3102.3432,-1448.9198)"
       x1="253.90569"
       y1="585.07233"
       x2="426.36124"
       y2="603.32697" />
    <linearGradient
       inkscape:collect="always"
       xlink:href="#linearGradient4180-6"
       id="linearGradient4375"
       gradientUnits="userSpaceOnUse"
       gradientTransform="matrix(1.1479464,0,0,1.1479464,2699.1521,-512.37356)"
       x1="-724.58618"
       y1="-369.8822"
       x2="-798.73187"
       y2="-417.80493" />
    <linearGradient
       inkscape:collect="always"
       xlink:href="#linearGradient8491-1"
       id="linearGradient4377"
       gradientUnits="userSpaceOnUse"
       gradientTransform="translate(1657.4375,399.45858)"
       x1="198.13084"
       y1="-1234.7371"
       x2="219.19351"
       y2="-1249.9716" />
    <linearGradient
       inkscape:collect="always"
       xlink:href="#linearGradient4174-9"
       id="linearGradient4379"
       gradientUnits="userSpaceOnUse"
       gradientTransform="matrix(-0.30453207,0,0,0.30453207,1768.6657,-1060.7224)"
       x1="237.87007"
       y1="416.54456"
       x2="517.56934"
       y2="333.29718" />
    <linearGradient
       inkscape:collect="always"
       xlink:href="#linearGradient4192-2"
       id="linearGradient4381"
       gradientUnits="userSpaceOnUse"
       gradientTransform="matrix(0.80677749,0,0,0.80677749,2142.2501,-1117.9041)"
       x1="-29.336311"
       y1="187.6321"
       x2="116.55212"
       y2="202.62271" />
    <linearGradient
       inkscape:collect="always"
       xlink:href="#linearGradient3381-2"
       id="linearGradient4383"
       gradientUnits="userSpaceOnUse"
       gradientTransform="matrix(0.80677749,0,0,0.80677749,2142.2501,-1117.9041)"
       x1="44.413036"
       y1="211.7975"
       x2="192.50653"
       y2="239.24023" />
    <linearGradient
       inkscape:collect="always"
       xlink:href="#linearGradient4958-1"
       id="linearGradient4385"
       gradientUnits="userSpaceOnUse"
       gradientTransform="matrix(1.0093628,0,0,1.0093628,947.9788,387.28379)"
       x1="1797.6985"
       y1="-1309.038"
       x2="1898.9016"
       y2="-1295.2501" />
    <linearGradient
       inkscape:collect="always"
       xlink:href="#linearGradient3381-9-4"
       id="linearGradient4387"
       gradientUnits="userSpaceOnUse"
       gradientTransform="matrix(0.81433119,0,0,0.81433119,2656.3591,-1130.375)"
       x1="23.649471"
       y1="215.32921"
       x2="177.03036"
       y2="237.97072" />
    <linearGradient
       inkscape:collect="always"
       xlink:href="#linearGradient5216-4"
       id="linearGradient4389"
       gradientUnits="userSpaceOnUse"
       gradientTransform="matrix(1.0067898,0,0,1.0067898,1160.4299,409.93323)"
       x1="1855.1234"
       y1="-1338.0314"
       x2="1972.8037"
       y2="-1340.8514" />
    <linearGradient
       inkscape:collect="always"
       xlink:href="#linearGradient5210-3"
       id="linearGradient4391"
       gradientUnits="userSpaceOnUse"
       gradientTransform="matrix(1.0067898,0,0,1.0067898,1160.4299,409.93323)"
       x1="1727.6387"
       y1="-1411.7721"
       x2="1881.1664"
       y2="-1383.1116" />
    <linearGradient
       inkscape:collect="always"
       xlink:href="#linearGradient5222-6"
       id="linearGradient4393"
       gradientUnits="userSpaceOnUse"
       gradientTransform="matrix(0.85618175,0,0,0.85618175,3102.3432,-1448.9198)"
       x1="253.90569"
       y1="585.07233"
       x2="426.36124"
       y2="603.32697" />
    <linearGradient
       inkscape:collect="always"
       xlink:href="#linearGradient5204-2"
       id="linearGradient4395"
       gradientUnits="userSpaceOnUse"
       gradientTransform="matrix(0.85462947,-0.05153301,0.05153301,0.85462947,3067.9964,-1427.7491)"
       x1="146.39014"
       y1="476.95825"
       x2="352.09073"
       y2="534.85553" />
    <linearGradient
       inkscape:collect="always"
       xlink:href="#linearGradient4503-0"
       id="linearGradient4397"
       gradientUnits="userSpaceOnUse"
       gradientTransform="translate(1208.3562,395.65281)"
       x1="826.21851"
       y1="-1230.2991"
       x2="855.00775"
       y2="-1248.1996" />
    <linearGradient
       inkscape:collect="always"
       xlink:href="#linearGradient4186-6"
       id="linearGradient4399"
       gradientUnits="userSpaceOnUse"
       gradientTransform="matrix(1.1730997,0,0,1.1730997,1984.1455,-1476.9222)"
       x1="-76.412094"
       y1="389.39233"
       x2="49.569923"
       y2="439.81024" />
    <linearGradient
       inkscape:collect="always"
       xlink:href="#linearGradient4578-9"
       id="linearGradient4401"
       gradientUnits="userSpaceOnUse"
       gradientTransform="matrix(0.72449502,0,0,0.72449502,2339.9193,-1207.7054)"
       x1="44.001572"
       y1="258.65482"
       x2="249.80136"
       y2="334.51767" />
    <linearGradient
       inkscape:collect="always"
       xlink:href="#linearGradient4301-8"
       id="linearGradient4403"
       gradientUnits="userSpaceOnUse"
       gradientTransform="matrix(0.89801095,0,0,0.89801095,1339.5524,271.53307)"
       x1="1294.439"
       y1="-1337.8593"
       x2="1404.6068"
       y2="-1316.579" />
    <linearGradient
       inkscape:collect="always"
       xlink:href="#linearGradient4238-3"
       id="linearGradient4405"
       gradientUnits="userSpaceOnUse"
       gradientTransform="matrix(1.2664476,0,0,1.2664476,501.65094,732.08996)"
       x1="2477.7629"
       y1="-1359.9611"
       x2="2660.179"
       y2="-1347.0822" />
    <linearGradient
       inkscape:collect="always"
       xlink:href="#linearGradient3209-1-6"
       id="linearGradient4407"
       gradientUnits="userSpaceOnUse"
       gradientTransform="matrix(1.1331463,0,0,1.1331463,3139.3281,-1414.4012)"
       x1="356.90396"
       y1="296.15756"
       x2="557.15393"
       y2="348.7507" />
    <linearGradient
       inkscape:collect="always"
       xlink:href="#linearGradient4578-9"
       id="linearGradient3954"
       gradientUnits="userSpaceOnUse"
       gradientTransform="matrix(0.72449502,0,0,0.72449502,2339.9193,-1207.7054)"
       x1="44.001572"
       y1="258.65482"
       x2="249.80136"
       y2="334.51767" />
    <linearGradient
       inkscape:collect="always"
       xlink:href="#linearGradient4301-8"
       id="linearGradient3956"
       gradientUnits="userSpaceOnUse"
       gradientTransform="matrix(0.89801095,0,0,0.89801095,1339.5524,271.53307)"
       x1="1294.439"
       y1="-1337.8593"
       x2="1404.6068"
       y2="-1316.579" />
    <linearGradient
       inkscape:collect="always"
       xlink:href="#linearGradient4301-8"
       id="linearGradient3988"
       gradientUnits="userSpaceOnUse"
       gradientTransform="matrix(0.89801095,0,0,0.89801095,1339.5524,271.53307)"
       x1="1294.439"
       y1="-1337.8593"
       x2="1404.6068"
       y2="-1316.579" />
    <linearGradient
       inkscape:collect="always"
       xlink:href="#linearGradient4578-9"
       id="linearGradient4007"
       gradientUnits="userSpaceOnUse"
       gradientTransform="matrix(0.72449502,0,0,0.72449502,2339.9193,-1207.7054)"
       x1="44.001572"
       y1="258.65482"
       x2="249.80136"
       y2="334.51767" />
    <linearGradient
       inkscape:collect="always"
       xlink:href="#linearGradient4958-1"
       id="linearGradient4010"
       gradientUnits="userSpaceOnUse"
       gradientTransform="matrix(1.0093628,0,0,1.0093628,947.9788,387.28379)"
       x1="1797.6985"
       y1="-1309.038"
       x2="1898.9016"
       y2="-1295.2501" />
    <linearGradient
       inkscape:collect="always"
       xlink:href="#linearGradient3381-9-4"
       id="linearGradient4012"
       gradientUnits="userSpaceOnUse"
       gradientTransform="matrix(0.81433119,0,0,0.81433119,2656.3591,-1130.375)"
       x1="23.649471"
       y1="215.32921"
       x2="177.03036"
       y2="237.97072" />
    <linearGradient
       inkscape:collect="always"
       xlink:href="#linearGradient3381-9-4"
       id="linearGradient4030"
       gradientUnits="userSpaceOnUse"
       gradientTransform="matrix(0.81433119,0,0,0.81433119,2656.3591,-1130.375)"
       x1="10.588115"
       y1="136.96107"
       x2="137.8463"
       y2="181.99348" />
    <linearGradient
       inkscape:collect="always"
       xlink:href="#linearGradient4958-1"
       id="linearGradient4054"
       gradientUnits="userSpaceOnUse"
       gradientTransform="matrix(1.0093628,0,0,1.0093628,947.9788,387.28379)"
       x1="1782.6448"
       y1="-1319.5756"
       x2="1876.321"
       y2="-1317.8307" />
    <linearGradient
       inkscape:collect="always"
       xlink:href="#linearGradient4238-3"
       id="linearGradient4059"
       gradientUnits="userSpaceOnUse"
       gradientTransform="matrix(1.2664476,0,0,1.2664476,501.65094,732.08996)"
       x1="2477.7629"
       y1="-1359.9611"
       x2="2660.179"
       y2="-1347.0822" />
    <linearGradient
       inkscape:collect="always"
       xlink:href="#linearGradient3209-1-6"
       id="linearGradient4061"
       gradientUnits="userSpaceOnUse"
       gradientTransform="matrix(1.1331463,0,0,1.1331463,3139.3281,-1414.4012)"
       x1="356.90396"
       y1="296.15756"
       x2="557.15393"
       y2="348.7507" />
    <linearGradient
       inkscape:collect="always"
       xlink:href="#linearGradient3209-1-6"
       id="linearGradient4095"
       gradientUnits="userSpaceOnUse"
       gradientTransform="matrix(1.1331463,0,0,1.1331463,3139.3281,-1414.4012)"
       x1="356.90396"
       y1="296.15756"
       x2="557.15393"
       y2="348.7507" />
    <linearGradient
       inkscape:collect="always"
       xlink:href="#linearGradient4238-3"
       id="linearGradient4099"
       gradientUnits="userSpaceOnUse"
       gradientTransform="matrix(1.2664476,0,0,1.2664476,501.65094,732.08996)"
       x1="2477.7629"
       y1="-1359.9611"
       x2="2660.179"
       y2="-1347.0822" />
    <linearGradient
       inkscape:collect="always"
       xlink:href="#linearGradient8491-1"
       id="linearGradient3636"
       gradientUnits="userSpaceOnUse"
       gradientTransform="translate(1657.4375,399.45858)"
       x1="198.13084"
       y1="-1234.7371"
       x2="219.19351"
       y2="-1249.9716" />
    <linearGradient
       inkscape:collect="always"
       xlink:href="#linearGradient4180-6"
       id="linearGradient3648"
       gradientUnits="userSpaceOnUse"
       gradientTransform="matrix(1.1479464,0,0,1.1479464,2699.1521,-512.37356)"
       x1="-724.58618"
       y1="-369.8822"
       x2="-798.73187"
       y2="-417.80493" />
    <linearGradient
       inkscape:collect="always"
       xlink:href="#linearGradient4174-9"
       id="linearGradient3673"
       gradientUnits="userSpaceOnUse"
       gradientTransform="matrix(-0.30453207,0,0,0.30453207,1768.6657,-1060.7224)"
       x1="237.87007"
       y1="416.54456"
       x2="517.56934"
       y2="333.29718" />
    <linearGradient
       inkscape:collect="always"
       xlink:href="#linearGradient3381-2"
       id="linearGradient3717"
       gradientUnits="userSpaceOnUse"
       gradientTransform="matrix(0.80677749,0,0,0.80677749,2142.2501,-1117.9041)"
       x1="44.413036"
       y1="211.7975"
       x2="192.50653"
       y2="239.24023" />
    <linearGradient
       inkscape:collect="always"
       xlink:href="#linearGradient4192-2"
       id="linearGradient3720"
       gradientUnits="userSpaceOnUse"
       gradientTransform="matrix(0.80677749,0,0,0.80677749,2142.2501,-1117.9041)"
       x1="-29.336311"
       y1="187.6321"
       x2="116.55212"
       y2="202.62271" />
    <linearGradient
       inkscape:collect="always"
       xlink:href="#linearGradient5210-3"
       id="linearGradient3753"
       gradientUnits="userSpaceOnUse"
       gradientTransform="matrix(1.0067898,0,0,1.0067898,1160.4299,409.93323)"
       x1="1727.6387"
       y1="-1411.7721"
       x2="1881.1664"
       y2="-1383.1116" />
    <linearGradient
       inkscape:collect="always"
       xlink:href="#linearGradient5216-4"
       id="linearGradient3768"
       gradientUnits="userSpaceOnUse"
       gradientTransform="matrix(1.0067898,0,0,1.0067898,1160.4299,409.93323)"
       x1="1855.1234"
       y1="-1338.0314"
       x2="1972.8037"
       y2="-1340.8514" />
    <linearGradient
       inkscape:collect="always"
       xlink:href="#linearGradient5204-2"
       id="linearGradient3794"
       gradientUnits="userSpaceOnUse"
       gradientTransform="matrix(0.85462947,-0.05153301,0.05153301,0.85462947,3067.9964,-1427.7491)"
       x1="146.39014"
       y1="476.95825"
       x2="352.09073"
       y2="534.85553" />
    <linearGradient
       inkscape:collect="always"
       xlink:href="#linearGradient5222-6"
       id="linearGradient3811"
       gradientUnits="userSpaceOnUse"
       gradientTransform="matrix(0.85618175,0,0,0.85618175,3102.3432,-1448.9198)"
       x1="253.90569"
       y1="585.07233"
       x2="426.36124"
       y2="603.32697" />
    <linearGradient
       inkscape:collect="always"
       xlink:href="#linearGradient4186-6"
       id="linearGradient3838"
       gradientUnits="userSpaceOnUse"
       gradientTransform="matrix(1.1730997,0,0,1.1730997,1984.1455,-1476.9222)"
       x1="-76.412094"
       y1="389.39233"
       x2="49.569923"
       y2="439.81024" />
    <linearGradient
       inkscape:collect="always"
       xlink:href="#linearGradient4503-0"
       id="linearGradient3846"
       gradientUnits="userSpaceOnUse"
       gradientTransform="translate(1208.3562,395.65281)"
       x1="826.21851"
       y1="-1230.2991"
       x2="855.00775"
       y2="-1248.1996" />
    <linearGradient
       inkscape:collect="always"
       xlink:href="#linearGradient4180-6-7"
       id="linearGradient3648-1"
       gradientUnits="userSpaceOnUse"
       gradientTransform="matrix(1.1479464,0,0,1.1479464,2699.1521,-512.37356)"
       x1="-724.58618"
       y1="-369.8822"
       x2="-798.73187"
       y2="-417.80493" />
    <linearGradient
       id="linearGradient4180-6-7">
      <stop
         style="stop-color:#ffffff;stop-opacity:1;"
         offset="0"
         id="stop4182-0-4" />
      <stop
         style="stop-color:#999999;stop-opacity:1"
         offset="1"
         id="stop4184-6-0" />
    </linearGradient>
    <linearGradient
       inkscape:collect="always"
       xlink:href="#linearGradient8491-1-4"
       id="linearGradient3636-9"
       gradientUnits="userSpaceOnUse"
       gradientTransform="translate(1657.4375,399.45858)"
       x1="198.13084"
       y1="-1234.7371"
       x2="219.19351"
       y2="-1249.9716" />
    <linearGradient
       id="linearGradient8491-1-4">
      <stop
         style="stop-color:#666666;stop-opacity:1;"
         offset="0"
         id="stop8493-8-8" />
      <stop
         style="stop-color:#666666;stop-opacity:0;"
         offset="1"
         id="stop8495-4-8" />
    </linearGradient>
    <linearGradient
       inkscape:collect="always"
       xlink:href="#linearGradient8491-1-4"
       id="linearGradient4163"
       gradientUnits="userSpaceOnUse"
       gradientTransform="translate(1699.5753,368.23406)"
       x1="198.13084"
       y1="-1234.7371"
       x2="219.19351"
       y2="-1249.9716" />
    <linearGradient
       inkscape:collect="always"
       xlink:href="#linearGradient4180-6-7"
       id="linearGradient4175"
       gradientUnits="userSpaceOnUse"
       gradientTransform="matrix(1.1479464,0,0,1.1479464,2741.2899,-543.59808)"
       x1="-724.58618"
       y1="-369.8822"
       x2="-798.73187"
       y2="-417.80493" />
    <linearGradient
       inkscape:collect="always"
       xlink:href="#linearGradient4180-6-7"
       id="linearGradient4217"
       gradientUnits="userSpaceOnUse"
       gradientTransform="matrix(1.1479464,0,0,1.1479464,2739.4699,-544.11808)"
       x1="-724.58618"
       y1="-369.8822"
       x2="-798.73187"
       y2="-417.80493" />
    <linearGradient
       inkscape:collect="always"
       xlink:href="#linearGradient8491-1-4"
       id="linearGradient4219"
       gradientUnits="userSpaceOnUse"
       gradientTransform="translate(1699.5753,368.23406)"
       x1="198.13084"
       y1="-1234.7371"
       x2="219.19351"
       y2="-1249.9716" />
  </defs>
  <sodipodi:namedview
     id="base"
     pagecolor="#ffffff"
     bordercolor="#666666"
     borderopacity="1.0"
     inkscape:pageopacity="0.0"
     inkscape:pageshadow="2"
     inkscape:zoom="0.48077493"
     inkscape:cx="-670.40343"
     inkscape:cy="238.53085"
     inkscape:document-units="m"
     inkscape:current-layer="layer1"
     showgrid="false"
     inkscape:window-width="1858"
     inkscape:window-height="1177"
     inkscape:window-x="54"
     inkscape:window-y="-8"
     inkscape:window-maximized="1"
     showguides="true"
     inkscape:guide-bbox="true"
     units="m"
     inkscape:snap-global="false"
     fit-margin-top="0"
     fit-margin-left="0"
     fit-margin-right="0"
     fit-margin-bottom="0"
     width="0.22m" />
  <metadata
     id="metadata3562">
    <rdf:RDF>
      <cc:Work
         rdf:about="">
        <dc:format>image/svg+xml</dc:format>
        <dc:type
           rdf:resource="http://purl.org/dc/dcmitype/StillImage" />
        <dc:title />
        <dc:creator>
          <cc:Agent>
            <dc:title>Rudy den Outer</dc:title>
          </cc:Agent>
        </dc:creator>
      </cc:Work>
    </rdf:RDF>
  </metadata>
  <g
     inkscape:label="Layer 1"
     inkscape:groupmode="layer"
     id="layer1"
     transform="translate(-1813.25,1381.499)">
    <g
       id="g4180"
       transform="matrix(1,0,0,0.97660707,99.838817,-169.80771)">
      <path
         sodipodi:nodetypes="ccccccc"
         inkscape:connector-curvature="0"
         id="path4516"
         d="m 1840.0547,-901.54176 c 64.9782,1.95327 100.3536,-0.64773 124.052,-5.04518 0.4304,5.7121 0.6535,11.41268 -2.6709,16.91618 -3.6515,4.24392 -5.9454,3.87191 -8.6065,4.74841 -28.6283,4.10233 -71.6143,2.35523 -110.9939,2.07742 -1.5966,-1.62539 -1.6914,-4.00163 -2.0775,-6.23228 z"
         style="fill:#ffffff;stroke:none" />
      <path
         inkscape:connector-curvature="0"
         sodipodi:nodetypes="ccccc"
         id="path1933"
         d="m 1839.8624,-904.13501 c 18.0614,-1.3805 27.4948,-0.5178 27.4948,-0.5178 l 0,1.0354 c -9.2585,-0.221 -18.4268,-0.081 -27.3798,0.9203 l -0.115,-1.4379 z"
         style="fill:#a05a2c;stroke:#a05a2c;stroke-width:0.48807776;stroke-linecap:butt;stroke-linejoin:miter;stroke-miterlimit:4;stroke-opacity:1;stroke-dasharray:none" />
      <path
         inkscape:connector-curvature="0"
         id="path1937"
         d="m 1829.3937,-926.82781 13.1147,21.2827 11.9642,-16.911 28.5302,4.0263 -0.3451,14.2651"
         style="fill:none;stroke:#000000;stroke-width:0.28698659;stroke-linecap:butt;stroke-linejoin:miter;stroke-miterlimit:4;stroke-opacity:1;stroke-dasharray:none" />
      <g
		id="gSilk">
	  <path
         inkscape:connector-curvature="0"
         sodipodi:nodetypes="ccccccc"
         id="silk"
         d="m 1951.6315,-1077.5311 c -42.7251,47.9832 -87.2254,102.02558 -125.3137,147.58939 l 116.0933,15.8037 7.475,1.09567 0.2506,-9.78687 0.13,-27.70794 c 0.043,-41.35988 1.0439,-84.96985 1.3648,-126.99395 z"
         style="fill:url(#linearGradient4217);fill-opacity:1;fill-rule:evenodd;stroke:#999999;stroke-width:0.3443839;stroke-linecap:butt;stroke-linejoin:miter;stroke-miterlimit:4;stroke-opacity:1;stroke-dasharray:none">
	  </path>
	  <path
         inkscape:connector-curvature="0"
         id="path7497"
         d="m 1826.5235,-929.07841 123.5644,17.5328"
         style="fill:#ffd42a;stroke:#ffd42a;stroke-width:2.29589272;stroke-linecap:butt;stroke-linejoin:miter;stroke-miterlimit:4;stroke-opacity:1;stroke-dasharray:none" />
	</g>
      <path
         inkscape:connector-curvature="0"
         sodipodi:nodetypes="cccc"
         id="path1961"
         d="m 1840.0259,-885.14621 0.045,-16.7805 0.2521,0 0.063,0.4881"
         style="fill:none;stroke:#000000;stroke-width:1.04607105;stroke-linecap:butt;stroke-linejoin:miter;stroke-miterlimit:4;stroke-opacity:1;stroke-dasharray:none" />
      <path
         inkscape:connector-curvature="0"
         sodipodi:nodetypes="cccccc"
         id="path2007"
         d="m 1839.7787,-885.33301 0,-20.2243 c -1.2651,-0.6179 -2.6503,-0.7557 -4.2588,0 0.7098,10.9982 0.019,16.1424 -7.2272,18.7132 -7.6723,2.8264 -12.4694,9.5903 -7.0981,13.9381 5.1287,4.6108 13.9716,0.035 18.5841,-12.3894"
         style="fill:#ffffff;stroke:#000000;stroke-width:0.3443839;stroke-linecap:butt;stroke-linejoin:miter;stroke-miterlimit:4;stroke-opacity:1;stroke-dasharray:none" />
      <path
         inkscape:connector-curvature="0"
         sodipodi:nodetypes="ccc"
         id="path2015"
         d="m 1840.7607,-885.29541 c -0.071,1.3545 0.5375,1.8613 1.1475,2.194 l 63.3667,1.0969"
         style="fill:#ffcc00;fill-opacity:0;stroke:#000000;stroke-width:0.57397318;stroke-linecap:butt;stroke-linejoin:miter;stroke-miterlimit:4;stroke-opacity:1;stroke-dasharray:none" />
      <path
         inkscape:connector-curvature="0"
         sodipodi:nodetypes="cc"
         id="path2019"
         d="m 1840.7466,-901.62101 c 42.1079,2.3003 83.054,1.1151 122.4102,-4.8397"
         style="fill:none;stroke:#000000;stroke-width:0.48807776;stroke-linecap:butt;stroke-linejoin:miter;stroke-miterlimit:4;stroke-opacity:1;stroke-dasharray:none" />
      <path
         inkscape:connector-curvature="0"
         sodipodi:nodetypes="cc"
         id="path2021"
         d="m 1840.873,-889.24841 c 30.9929,7.3219 89.7848,7.9549 112.6045,2.6625"
         style="fill:none;stroke:#000000;stroke-width:0.48807776;stroke-linecap:butt;stroke-linejoin:miter;stroke-miterlimit:4;stroke-opacity:1;stroke-dasharray:none" />
      <path
         inkscape:connector-curvature="0"
         sodipodi:nodetypes="cc"
         id="path2023"
         d="m 1963.1568,-906.91231 c -0.023,7.3775 0.9322,18.182 -9.8083,20.3264"
         style="fill:none;stroke:#000000;stroke-width:0.48807776;stroke-linecap:butt;stroke-linejoin:miter;stroke-miterlimit:4;stroke-opacity:1;stroke-dasharray:none" />
      <path
         inkscape:connector-curvature="0"
         sodipodi:nodetypes="cc"
         id="path2027"
         d="m 1905.2104,-881.93991 c 19.1006,0.05 35.5706,-0.8693 48.1381,-3.2264"
         style="fill:none;stroke:#000000;stroke-width:0.57397318;stroke-linecap:butt;stroke-linejoin:miter;stroke-miterlimit:4;stroke-opacity:1;stroke-dasharray:none" />
      <path
         inkscape:connector-curvature="0"
         sodipodi:nodetypes="ccc"
         id="path2029"
         d="m 1963.1091,-906.73281 c -0.01,-0.7714 1.2405,-1.0843 1.5963,-0.5022 0.3072,14.5012 -2.0612,20.7557 -11.3569,22.0687"
         style="fill:none;stroke:#000000;stroke-width:0.57397318;stroke-linecap:butt;stroke-linejoin:miter;stroke-miterlimit:4;stroke-opacity:1;stroke-dasharray:none" />
      <path
         inkscape:connector-curvature="0"
         sodipodi:nodetypes="cc"
         id="path2031"
         d="m 1840.6792,-900.83421 c 61.3567,2.9213 101.1282,-1.5793 122.4666,-5.0509"
         style="fill:none;stroke:#000000;stroke-width:0.57397318;stroke-linecap:butt;stroke-linejoin:miter;stroke-miterlimit:4;stroke-opacity:1;stroke-dasharray:none" />
      <path
         inkscape:connector-curvature="0"
         sodipodi:nodetypes="cccccc"
         id="path2033"
         d="m 1918.9775,-881.85281 -14.4185,24.2743 c -0.4871,0.5295 -1.0073,0.3456 -1.2776,0 l -5.4754,-9.4907 c -0.5961,-1.3241 -0.2824,-1.3794 0.5475,-3.1028 0,0 5.8404,-9.8557 6.9355,-11.6808"
         style="fill:url(#linearGradient4219);fill-opacity:1;stroke:#000000;stroke-width:0.3443839;stroke-linecap:butt;stroke-linejoin:miter;stroke-miterlimit:4;stroke-opacity:1;stroke-dasharray:none" />
      <path
         inkscape:connector-curvature="0"
         sodipodi:nodetypes="cc"
         id="path2047"
         d="m 1840.7827,-898.79721 c 53.5202,4.3742 88.5416,0.6103 122.1736,-4.5621"
         style="fill:none;stroke:#000000;stroke-width:0.48807776;stroke-linecap:butt;stroke-linejoin:miter;stroke-miterlimit:4;stroke-opacity:1;stroke-dasharray:none" />
      <path
         inkscape:connector-curvature="0"
         sodipodi:nodetypes="cc"
         id="path2049"
         d="m 1840.8501,-896.56381 c 60.4528,7.1143 89.5887,0.5608 122.1062,-4.102"
         style="fill:none;stroke:#000000;stroke-width:0.48807776;stroke-linecap:butt;stroke-linejoin:miter;stroke-miterlimit:4;stroke-opacity:1;stroke-dasharray:none" />
      <path
         inkscape:connector-curvature="0"
         sodipodi:nodetypes="cc"
         id="path2051"
         d="m 1840.7827,-894.38621 c 57.5943,8.3834 88.4875,2.8973 121.9714,-3.9951"
         style="fill:none;stroke:#000000;stroke-width:0.48807776;stroke-linecap:butt;stroke-linejoin:miter;stroke-miterlimit:4;stroke-opacity:1;stroke-dasharray:none" />
      <path
         inkscape:connector-curvature="0"
         sodipodi:nodetypes="cc"
         id="path2053"
         d="m 1840.6874,-892.01801 c 57.504,9.4382 88.9137,3.3569 121.7972,-3.9161"
         style="fill:none;stroke:#000000;stroke-width:0.48807776;stroke-linecap:butt;stroke-linejoin:miter;stroke-miterlimit:4;stroke-opacity:1;stroke-dasharray:none" />
      <path
         inkscape:connector-curvature="0"
         sodipodi:nodetypes="cc"
         id="path2055"
         d="m 1840.7827,-890.80021 c 60.6378,9.5453 94.3279,2.5498 121.028,-2.889"
         style="fill:none;stroke:#000000;stroke-width:0.48807776;stroke-linecap:butt;stroke-linejoin:miter;stroke-miterlimit:4;stroke-opacity:1;stroke-dasharray:none" />
      <path
         inkscape:connector-curvature="0"
         sodipodi:nodetypes="cc"
         id="path2099"
         d="m 1840.6911,-890.10481 c 53.809,8.6925 89.0331,4.861 120.0671,-1.4643"
         style="fill:none;stroke:#000000;stroke-width:0.48807776;stroke-linecap:butt;stroke-linejoin:miter;stroke-miterlimit:4;stroke-opacity:1;stroke-dasharray:none" />
      <path
         inkscape:connector-curvature="0"
         sodipodi:nodetypes="cc"
         id="path2101"
         d="m 1959.1313,-889.45401 c -41.9248,8.3176 -79.8833,6.6383 -118.4402,-0.1627"
         style="fill:none;stroke:#000000;stroke-width:0.57397318;stroke-linecap:butt;stroke-linejoin:miter;stroke-miterlimit:4;stroke-opacity:1;stroke-dasharray:none" />
      <path
         inkscape:connector-curvature="0"
         id="path1907"
         d="m 1931.7989,-911.41751 10.087,5.5316"
         style="fill:none;stroke:#000000;stroke-width:0.28698659;stroke-linecap:butt;stroke-linejoin:miter;stroke-miterlimit:4;stroke-opacity:1;stroke-dasharray:none" />
      <path
         inkscape:connector-curvature="0"
         sodipodi:nodetypes="cc"
         id="path1909"
         d="m 1835.0338,-892.38251 c 0.053,2.8619 3.9463,3.3249 4.4795,0.4881"
         style="fill:none;stroke:#000000;stroke-width:0.32266244px;stroke-linecap:butt;stroke-linejoin:miter;stroke-opacity:1" />
      <path
         inkscape:connector-curvature="0"
         id="path7495"
         d="m 1950.5052,-1016.7424 -0.8349,112.64519"
         style="fill:none;stroke:#ffd42a;stroke-width:3.47298145;stroke-linecap:butt;stroke-linejoin:miter;stroke-miterlimit:4;stroke-opacity:1;stroke-dasharray:none" />
      <path
         sodipodi:nodetypes="cc"
         inkscape:connector-curvature="0"
         id="path7503"
         d="m 1951.7766,-1078.2134 c -0.8067,58.9498 -1.3952,85.97574 -1.3775,125.20139"
         style="fill:none;stroke:#ffd42a;stroke-width:2.29589272;stroke-linecap:butt;stroke-linejoin:miter;stroke-miterlimit:4;stroke-opacity:1;stroke-dasharray:none" />
      <path
         inkscape:connector-curvature="0"
         id="path1947"
         d="m 1948.8137,-1015.3652 -4.3868,110.87159"
         style="fill:none;stroke:#000000;stroke-width:0.50173157;stroke-linecap:butt;stroke-linejoin:miter;stroke-miterlimit:4;stroke-opacity:1;stroke-dasharray:none;marker-mid:none" />
      <path
         inkscape:connector-curvature="0"
         sodipodi:nodetypes="ccc"
         id="path1949"
         d="m 1951.4588,-1008.8157 12.0799,99.73059 -7.6613,1.2468"
         style="fill:none;stroke:#000000;stroke-width:0.57397318;stroke-linecap:butt;stroke-linejoin:miter;stroke-miterlimit:4;stroke-opacity:1;stroke-dasharray:none" />
      <path
         inkscape:connector-curvature="0"
         id="path7731"
         d="m 1813.2602,-889.30311 163.0079,0"
         style="fill:none;stroke:#000080;stroke-width:0.75;stroke-linecap:butt;stroke-linejoin:miter;stroke-miterlimit:4;stroke-opacity:1;stroke-dasharray:none" />
    </g>
  </g>
</svg>
